%!PS-Adobe-2.0
%%Creator: dvips(k) 5.998 Copyright 2018 Radical Eye Software
%%Title: db13w3.dvi
%%CreationDate: Sat Dec 21 02:12:28 2019
%%Pages: 1
%%PageOrder: Ascend
%%BoundingBox: 0 0 24 114
%%EndComments
%DVIPSWebPage: (www.radicaleye.com)
%DVIPSCommandLine: dvips db13w3.dvi
%DVIPSParameters: dpi=600
%DVIPSSource:  TeX output 2019.12.20:2112
%%BeginProcSet: tex.pro 0 0
%!
/TeXDict 300 dict def TeXDict begin/N{def}def/B{bind def}N/S{exch}N/X{S
N}B/A{dup}B/TR{translate}N/isls false N/vsize 11 72 mul N/hsize 8.5 72
mul N/landplus90{false}def/@rigin{isls{[0 landplus90{1 -1}{-1 1}ifelse 0
0 0]concat}if 72 Resolution div 72 VResolution div neg scale isls{
landplus90{VResolution 72 div vsize mul 0 exch}{Resolution -72 div hsize
mul 0}ifelse TR}if Resolution VResolution vsize -72 div 1 add mul TR[
matrix currentmatrix{A A round sub abs 0.00001 lt{round}if}forall round
exch round exch]setmatrix}N/@landscape{/isls true N}B/@manualfeed{
statusdict/manualfeed true put}B/@copies{/#copies X}B/FMat[1 0 0 -1 0 0]
N/FBB[0 0 0 0]N/nn 0 N/IEn 0 N/ctr 0 N/df-tail{/nn 8 dict N nn begin
/FontType 3 N/FontMatrix fntrx N/FontBBox FBB N string/base X array
/BitMaps X/BuildChar{CharBuilder}N/Encoding IEn N end A{/foo setfont}2
array copy cvx N load 0 nn put/ctr 0 N[}B/sf 0 N/df{/sf 1 N/fntrx FMat N
df-tail}B/dfs{div/sf X/fntrx[sf 0 0 sf neg 0 0]N df-tail}B/E{pop nn A
definefont setfont}B/Cw{Cd A length 5 sub get}B/Ch{Cd A length 4 sub get
}B/Cx{128 Cd A length 3 sub get sub}B/Cy{Cd A length 2 sub get 127 sub}
B/Cdx{Cd A length 1 sub get}B/Ci{Cd A type/stringtype ne{ctr get/ctr ctr
1 add N}if}B/CharBuilder{save 3 1 roll S A/base get 2 index get S
/BitMaps get S get/Cd X pop/ctr 0 N Cdx 0 Cx Cy Ch sub Cx Cw add Cy
setcachedevice Cw Ch true[1 0 0 -1 -.1 Cx sub Cy .1 sub]{Ci}imagemask
restore}B/D{/cc X A type/stringtype ne{]}if nn/base get cc ctr put nn
/BitMaps get S ctr S sf 1 ne{A A length 1 sub A 2 index S get sf div put
}if put/ctr ctr 1 add N}B/I{cc 1 add D}B/bop{userdict/bop-hook known{
bop-hook}if/SI save N @rigin 0 0 moveto/V matrix currentmatrix A 1 get A
mul exch 0 get A mul add .99 lt{/QV}{/RV}ifelse load def pop pop}N/eop{
SI restore userdict/eop-hook known{eop-hook}if showpage}N/@start{
userdict/start-hook known{start-hook}if pop/VResolution X/Resolution X
1000 div/DVImag X/IEn 256 array N 2 string 0 1 255{IEn S A 360 add 36 4
index cvrs cvn put}for pop 65781.76 div/vsize X 65781.76 div/hsize X}N
/dir 0 def/dyy{/dir 0 def}B/dyt{/dir 1 def}B/dty{/dir 2 def}B/dtt{/dir 3
def}B/p{dir 2 eq{-90 rotate show 90 rotate}{dir 3 eq{-90 rotate show 90
rotate}{show}ifelse}ifelse}N/RMat[1 0 0 -1 0 0]N/BDot 260 string N/Rx 0
N/Ry 0 N/V{}B/RV/v{/Ry X/Rx X V}B statusdict begin/product where{pop
false[(Display)(NeXT)(LaserWriter 16/600)]{A length product length le{A
length product exch 0 exch getinterval eq{pop true exit}if}{pop}ifelse}
forall}{false}ifelse end{{gsave TR -.1 .1 TR 1 1 scale Rx Ry false RMat{
BDot}imagemask grestore}}{{gsave TR -.1 .1 TR Rx Ry scale 1 1 false RMat
{BDot}imagemask grestore}}ifelse B/QV{gsave newpath transform round exch
round exch itransform moveto Rx 0 rlineto 0 Ry neg rlineto Rx neg 0
rlineto fill grestore}B/a{moveto}B/delta 0 N/tail{A/delta X 0 rmoveto}B
/M{S p delta add tail}B/b{S p tail}B/c{-4 M}B/d{-3 M}B/e{-2 M}B/f{-1 M}
B/g{0 M}B/h{1 M}B/i{2 M}B/j{3 M}B/k{4 M}B/w{0 rmoveto}B/l{p -4 w}B/m{p
-3 w}B/n{p -2 w}B/o{p -1 w}B/q{p 1 w}B/r{p 2 w}B/s{p 3 w}B/t{p 4 w}B/x{
0 S rmoveto}B/y{3 2 roll p a}B/bos{/SS save N}B/eos{SS restore}B end

%%EndProcSet
%%BeginProcSet: special.pro 0 0
%!
TeXDict begin/SDict 200 dict N SDict begin/@SpecialDefaults{/hs 612 N
/vs 792 N/ho 0 N/vo 0 N/hsc 1 N/vsc 1 N/ang 0 N/CLIP 0 N/rwiSeen false N
/rhiSeen false N/letter{}N/note{}N/a4{}N/legal{}N}B/@scaleunit 100 N
/@hscale{@scaleunit div/hsc X}B/@vscale{@scaleunit div/vsc X}B/@hsize{
/hs X/CLIP 1 N}B/@vsize{/vs X/CLIP 1 N}B/@clip{/CLIP 2 N}B/@hoffset{/ho
X}B/@voffset{/vo X}B/@angle{/ang X}B/@rwi{10 div/rwi X/rwiSeen true N}B
/@rhi{10 div/rhi X/rhiSeen true N}B/@llx{/llx X}B/@lly{/lly X}B/@urx{
/urx X}B/@ury{/ury X}B/magscale true def end/@MacSetUp{userdict/md known
{userdict/md get type/dicttype eq{userdict begin md length 10 add md
maxlength ge{/md md dup length 20 add dict copy def}if end md begin
/letter{}N/note{}N/legal{}N/od{txpose 1 0 mtx defaultmatrix dtransform S
atan/pa X newpath clippath mark{transform{itransform moveto}}{transform{
itransform lineto}}{6 -2 roll transform 6 -2 roll transform 6 -2 roll
transform{itransform 6 2 roll itransform 6 2 roll itransform 6 2 roll
curveto}}{{closepath}}pathforall newpath counttomark array astore/gc xdf
pop ct 39 0 put 10 fz 0 fs 2 F/|______Courier fnt invertflag{PaintBlack}
if}N/txpose{pxs pys scale ppr aload pop por{noflips{pop S neg S TR pop 1
-1 scale}if xflip yflip and{pop S neg S TR 180 rotate 1 -1 scale ppr 3
get ppr 1 get neg sub neg ppr 2 get ppr 0 get neg sub neg TR}if xflip
yflip not and{pop S neg S TR pop 180 rotate ppr 3 get ppr 1 get neg sub
neg 0 TR}if yflip xflip not and{ppr 1 get neg ppr 0 get neg TR}if}{
noflips{TR pop pop 270 rotate 1 -1 scale}if xflip yflip and{TR pop pop
90 rotate 1 -1 scale ppr 3 get ppr 1 get neg sub neg ppr 2 get ppr 0 get
neg sub neg TR}if xflip yflip not and{TR pop pop 90 rotate ppr 3 get ppr
1 get neg sub neg 0 TR}if yflip xflip not and{TR pop pop 270 rotate ppr
2 get ppr 0 get neg sub neg 0 S TR}if}ifelse scaleby96{ppr aload pop 4
-1 roll add 2 div 3 1 roll add 2 div 2 copy TR .96 dup scale neg S neg S
TR}if}N/cp{pop pop showpage pm restore}N end}if}if}N/normalscale{
Resolution 72 div VResolution 72 div neg scale magscale{DVImag dup scale
}if 0 setgray}N/@beginspecial{SDict begin/SpecialSave save N gsave
normalscale currentpoint TR @SpecialDefaults count/ocount X/dcount
countdictstack N}N/@setspecial{CLIP 1 eq{newpath 0 0 moveto hs 0 rlineto
0 vs rlineto hs neg 0 rlineto closepath clip}if ho vo TR hsc vsc scale
ang rotate rwiSeen{rwi urx llx sub div rhiSeen{rhi ury lly sub div}{dup}
ifelse scale llx neg lly neg TR}{rhiSeen{rhi ury lly sub div dup scale
llx neg lly neg TR}if}ifelse CLIP 2 eq{newpath llx lly moveto urx lly
lineto urx ury lineto llx ury lineto closepath clip}if/showpage{}N
/erasepage{}N/setpagedevice{pop}N/copypage{}N newpath}N/@endspecial{
count ocount sub{pop}repeat countdictstack dcount sub{end}repeat
grestore SpecialSave restore end}N/@defspecial{SDict begin}N
/@fedspecial{end}B/li{lineto}B/rl{rlineto}B/rc{rcurveto}B/np{/SaveX
currentpoint/SaveY X N 1 setlinecap newpath}N/st{stroke SaveX SaveY
moveto}N/fil{fill SaveX SaveY moveto}N/ellipse{/endangle X/startangle X
/yrad X/xrad X/savematrix matrix currentmatrix N TR xrad yrad scale 0 0
1 startangle endangle arc savematrix setmatrix}N end

%%EndProcSet
%%BeginProcSet: color.pro 0 0
%!
TeXDict begin/setcmykcolor where{pop}{/setcmykcolor{dup 10 eq{pop
setrgbcolor}{1 sub 4 1 roll 3{3 index add neg dup 0 lt{pop 0}if 3 1 roll
}repeat setrgbcolor pop}ifelse}B}ifelse/TeXcolorcmyk{setcmykcolor}def
/TeXcolorrgb{setrgbcolor}def/TeXcolorgrey{setgray}def/TeXcolorgray{
setgray}def/TeXcolorhsb{sethsbcolor}def/currentcmykcolor where{pop}{
/currentcmykcolor{currentrgbcolor 10}B}ifelse/DC{exch dup userdict exch
known{pop pop}{X}ifelse}B/GreenYellow{0.15 0 0.69 0 setcmykcolor}DC
/Yellow{0 0 1 0 setcmykcolor}DC/Goldenrod{0 0.10 0.84 0 setcmykcolor}DC
/Dandelion{0 0.29 0.84 0 setcmykcolor}DC/Apricot{0 0.32 0.52 0
setcmykcolor}DC/Peach{0 0.50 0.70 0 setcmykcolor}DC/Melon{0 0.46 0.50 0
setcmykcolor}DC/YellowOrange{0 0.42 1 0 setcmykcolor}DC/Orange{0 0.61
0.87 0 setcmykcolor}DC/BurntOrange{0 0.51 1 0 setcmykcolor}DC
/Bittersweet{0 0.75 1 0.24 setcmykcolor}DC/RedOrange{0 0.77 0.87 0
setcmykcolor}DC/Mahogany{0 0.85 0.87 0.35 setcmykcolor}DC/Maroon{0 0.87
0.68 0.32 setcmykcolor}DC/BrickRed{0 0.89 0.94 0.28 setcmykcolor}DC/Red{
0 1 1 0 setcmykcolor}DC/OrangeRed{0 1 0.50 0 setcmykcolor}DC/RubineRed{
0 1 0.13 0 setcmykcolor}DC/WildStrawberry{0 0.96 0.39 0 setcmykcolor}DC
/Salmon{0 0.53 0.38 0 setcmykcolor}DC/CarnationPink{0 0.63 0 0
setcmykcolor}DC/Magenta{0 1 0 0 setcmykcolor}DC/VioletRed{0 0.81 0 0
setcmykcolor}DC/Rhodamine{0 0.82 0 0 setcmykcolor}DC/Mulberry{0.34 0.90
0 0.02 setcmykcolor}DC/RedViolet{0.07 0.90 0 0.34 setcmykcolor}DC
/Fuchsia{0.47 0.91 0 0.08 setcmykcolor}DC/Lavender{0 0.48 0 0
setcmykcolor}DC/Thistle{0.12 0.59 0 0 setcmykcolor}DC/Orchid{0.32 0.64 0
0 setcmykcolor}DC/DarkOrchid{0.40 0.80 0.20 0 setcmykcolor}DC/Purple{
0.45 0.86 0 0 setcmykcolor}DC/Plum{0.50 1 0 0 setcmykcolor}DC/Violet{
0.79 0.88 0 0 setcmykcolor}DC/RoyalPurple{0.75 0.90 0 0 setcmykcolor}DC
/BlueViolet{0.86 0.91 0 0.04 setcmykcolor}DC/Periwinkle{0.57 0.55 0 0
setcmykcolor}DC/CadetBlue{0.62 0.57 0.23 0 setcmykcolor}DC
/CornflowerBlue{0.65 0.13 0 0 setcmykcolor}DC/MidnightBlue{0.98 0.13 0
0.43 setcmykcolor}DC/NavyBlue{0.94 0.54 0 0 setcmykcolor}DC/RoyalBlue{1
0.50 0 0 setcmykcolor}DC/Blue{1 1 0 0 setcmykcolor}DC/Cerulean{0.94 0.11
0 0 setcmykcolor}DC/Cyan{1 0 0 0 setcmykcolor}DC/ProcessBlue{0.96 0 0 0
setcmykcolor}DC/SkyBlue{0.62 0 0.12 0 setcmykcolor}DC/Turquoise{0.85 0
0.20 0 setcmykcolor}DC/TealBlue{0.86 0 0.34 0.02 setcmykcolor}DC
/Aquamarine{0.82 0 0.30 0 setcmykcolor}DC/BlueGreen{0.85 0 0.33 0
setcmykcolor}DC/Emerald{1 0 0.50 0 setcmykcolor}DC/JungleGreen{0.99 0
0.52 0 setcmykcolor}DC/SeaGreen{0.69 0 0.50 0 setcmykcolor}DC/Green{1 0
1 0 setcmykcolor}DC/ForestGreen{0.91 0 0.88 0.12 setcmykcolor}DC
/PineGreen{0.92 0 0.59 0.25 setcmykcolor}DC/LimeGreen{0.50 0 1 0
setcmykcolor}DC/YellowGreen{0.44 0 0.74 0 setcmykcolor}DC/SpringGreen{
0.26 0 0.76 0 setcmykcolor}DC/OliveGreen{0.64 0 0.95 0.40 setcmykcolor}
DC/RawSienna{0 0.72 1 0.45 setcmykcolor}DC/Sepia{0 0.83 1 0.70
setcmykcolor}DC/Brown{0 0.81 1 0.60 setcmykcolor}DC/Tan{0.14 0.42 0.56 0
setcmykcolor}DC/Gray{0 0 0 0.50 setcmykcolor}DC/Black{0 0 0 1
setcmykcolor}DC/White{0 0 0 0 setcmykcolor}DC end

%%EndProcSet
TeXDict begin @defspecial

 /pgfH{/pgfheight exch def 0.75 setlinewidth [] 0 setdash /pgfshade
{pgfA} def /pgfdir { dup 0 moveto dup 5 index lineto } bind def} bind
def

 /pgfV{/pgfheight exch def 0.75 setlinewidth [] 0 setdash /pgfshade
{pgfA} def /pgfdir { dup 0 exch moveto dup 5 index exch lineto } bind
def} bind def

 /pgfA{ /pgfdiff 8 index round cvi 8 index round cvi sub 2 mul 1 add
def 2 index 6 index sub pgfdiff div 2 index 6 index sub pgfdiff div
2 index 6 index sub pgfdiff div pgfheight 9 index 9 index 9 index 14
index pgfdiff { 3 index 3 index 3 index setrgbcolor pgfdir stroke 4
-1 roll 7 index add 4 -1 roll 6 index add 4 -1 roll 5 index add 4 -1
roll .5 sub } repeat mark 15 1 roll cleartomark exch pop }bind def

 /pgfR1{ newpath dup dup dup 0 360 arc clip newpath dup /pgfendx exch
def /pgfendy exch def 0.875 setlinewidth [] 0 setdash /pgfshade {pgfR}
def /pgfstartx exch def /pgfstarty exch def /pgfdiffx pgfendx pgfstartx
sub def /pgfdiffy pgfendy pgfstarty sub def dup /pgfdomb exch def }bind
def

 /pgfR2{ newpath 0.5 add pgfcircx pgfcircy 3 2 roll 0 360 arc setrgbcolor
fill pop}bind def

 /pgfR{ /pgfdiff 8 index round cvi 8 index round cvi sub 4 mul 1 add
def /pgfcircx pgfstartx 9 index pgfdiffx pgfdomb div mul add def /pgfcircy
pgfstarty 9 index pgfdiffy pgfdomb div mul add def /pgfcircxe pgfstartx
8 index pgfdiffx pgfdomb div mul add def /pgfcircye pgfstarty 8 index
pgfdiffy pgfdomb div mul add def /pgfxstep pgfcircxe pgfcircx sub pgfdiff
div def /pgfystep pgfcircye pgfcircy sub pgfdiff div def 2 index 6
index sub pgfdiff div 2 index 6 index sub pgfdiff div 2 index 6 index
sub pgfdiff div 8 index 8 index 8 index 13 index pgfdiff { 3 index
3 index 3 index setrgbcolor pgfcircx pgfcircy 2 index 0 360 arc closepath
stroke 4 -1 roll 6 index add 4 -1 roll 5 index add 4 -1 roll 4 index
add 4 -1 roll .25 sub /pgfcircx pgfcircx pgfxstep add def /pgfcircy
pgfcircy pgfystep add def } repeat mark 14 1 roll cleartomark exch
pop }bind def

  /pgfsc{}bind def/pgffc{}bind def/pgfstr{stroke}bind def/pgffill{fill}bind
def/pgfeofill{eofill}bind def/pgfe{a dup 0 rlineto exch 0 exch rlineto
neg 0 rlineto closepath}bind def/pgfw{setlinewidth}bind def/pgfs{save
pgfpd 72 Resolution div 72 VResolution div neg scale magscale{1 DVImag
div dup scale}if pgfx neg pgfy neg translate pgffoa .setopacityalpha}bind
def/pgfr{pgfsd restore}bind def userdict begin/pgfo{pgfsd /pgfx currentpoint
/pgfy exch def def @beginspecial}bind def /pgfc{newpath @endspecial
pgfpd}bind def /pgfsd{globaldict /pgfdelta /delta where {pop delta}
{0} ifelse put}bind def/pgfpd{/delta globaldict /pgfdelta get def}bind
def /.setopacityalpha where {pop} {/.setopacityalpha{pop}def} ifelse
/.pgfsetfillopacityalpha{/pgffoa exch def /pgffill{gsave pgffoa .setopacityalpha
fill 1 .setopacityalpha newpath fill grestore newpath}bind def /pgfeofill{gsave
pgffoa .setopacityalpha eofill 1 .setopacityalpha newpath eofill grestore
newpath}bind def}bind def /.pgfsetstrokeopacityalpha{/pgfsoa exch def
/pgfstr{gsave pgfsoa .setopacityalpha stroke grestore newpath}bind
def}bind def /pgffoa 1 def /pgfsoa 1 def end

 /pgf1{gsave exec 1.0 pgfw 2.00002 0.0 moveto -6.00006 4.00005 lineto
-3.00003 0.0 lineto -6.00006 -4.00005 lineto pgffill  grestore} bind
def

 /pgf2{gsave exec 1.0 pgfw 0.8 pgfw [ ] 0.0 setdash 1 setlinecap 1
setlinejoin -3.00003 4.00005 moveto -2.75002 2.50002 0.0 0.24998 0.75
0.0 curveto 0.0 -0.24998 -2.75002 -2.50002 -3.00003 -4.00005 curveto
pgfstr  grestore} bind def

 /pgf3{gsave exec 1.0 pgfw [ ] 0.0 setdash 0.0 -5.00005 moveto 0.0
5.00005 lineto pgfstr  grestore} bind def

 /pgf4{gsave exec 1.0 pgfw [ ] 0.0 setdash -3.00003 -5.00005 moveto
0.0 -5.00005 lineto 0.0 5.00005 lineto -3.00003 5.00005 lineto pgfstr
 grestore} bind def

 /pgf5{gsave exec 1.0 pgfw [ ] 0.0 setdash -2.00002 -5.00005 moveto
1.0 -3.00003 1.0 3.00003 -2.00002 5.00005 curveto pgfstr  grestore}
bind def

 /pgf6{gsave exec 1.0 pgfw [ ] 0.0 setdash -4.50003 -5.00005 moveto
0.49998 0.0 lineto -4.50003 5.00005 lineto pgfstr  grestore} bind def

 /pgf7{gsave exec 1.0 pgfw -2.50002 0.0 translate [ ] 0.0 setdash 3.00003
0.0 moveto 3.00003 1.65689 1.65689 3.00003 0.0 3.00003 curveto -1.65689
3.00003 -3.00003 1.65689 -3.00003 0.0 curveto -3.00003 -1.65689 -1.65689
-3.00003 0.0 -3.00003 curveto 1.65689 -3.00003 3.00003 -1.65689 3.00003
0.0 curveto closepath gsave pgffc pgffill grestore gsave pgfsc pgfstr
grestore newpath  grestore} bind def

 /pgf8{gsave exec 1.0 pgfw [ ] 0.0 setdash 1.0 0.0 moveto -5.00005
3.00003 lineto -11.00012 0.0 lineto -5.00005 -3.00003 lineto closepath
gsave pgffc pgffill grestore gsave pgfsc pgfstr grestore newpath  grestore}
bind def
 
@fedspecial end TeXDict begin
1536603 7484932 1000 600 600 (db13w3.dvi)
@start end
%%EndProlog
%%BeginSetup
%%Feature: *Resolution 600dpi
TeXDict begin
% dvips-unknown
statusdict /setpageparams known { hsize vsize 0 1 statusdict begin {
setpageparams } stopped end } { true } ifelse { statusdict /setpage known
{ hsize vsize 1 statusdict begin { setpage } stopped pop end } if } if
 end
%%EndSetup
%%Page: 1 1
TeXDict begin 1 0 bop
%%HiResBoundingBox: 0 0 23.44672pt 114.211pt
 0 TeXcolorgray Black 0 TeXcolorgray
%%PageBoundingBox: 0 0 24 114
%%HiResPageBoundingBox: 0 0 23.35905 113.78403
%%BeginPageSetup
<< /PageSize [23.35905 113.78403] >> setpagedevice
0 0 bop
%%EndPageSetup

0 TeXcolorgray 0 TeXcolorgray -975 346 a

 -975 346 a -975
346 a


 pgfo

 save

 0 setgray

 0.3985 pgfw

 save

 56.69362 56.69362 moveto

 pgfstr

 save

 45.21315 3.98509 moveto

 45.21315 109.40215 lineto

 45.21315 111.60309 46.94804 112.95888 49.0882 112.43044 curveto

 64.29903 108.6747 lineto

 66.43918 108.14626 68.17407 105.93372 68.17407 103.73277 curveto

 68.17407 9.65445 lineto

 68.17407 7.4535 66.43918 5.24097 64.29903 4.71252 curveto

 49.0882 0.95679 lineto

 46.94804 0.42836 45.21315 1.78415 45.21315 3.98509 curveto

 closepath

 pgfstr

 save

 [1.0 0.0 0.0 1.0 56.69362 56.69362 ] concat

 pgfs


 -975 346 a
 0 setgray
 -975 346 a -975 346 a


 pgfr

 restore

 62.13618 56.69362 moveto

 62.13618 57.47638 61.50162 58.11093 60.71886 58.11093 curveto

 59.93608 58.11093 59.30153 57.47638 59.30153 56.69362 curveto

 59.30153 55.91084 59.93608 55.27629 60.71886 55.27629 curveto

 61.50162 55.27629 62.13618 55.91084 62.13618 56.69362 curveto

 closepath

 60.71886 56.69362 moveto

 pgfstr

 54.0857 60.61963 moveto

 54.0857 61.40239 53.45114 62.03696 52.66837 62.03696 curveto

 51.8856 62.03696 51.25105 61.40239 51.25105 60.61963 curveto

 51.25105 59.83687 51.8856 59.2023 52.66837 59.2023 curveto

 53.45114 59.2023 54.0857 59.83687 54.0857 60.61963 curveto

 closepath

 52.66837 60.61963 moveto

 pgfstr

 54.0857 52.7676 moveto

 54.0857 53.55035 53.45114 54.18492 52.66837 54.18492 curveto

 51.8856 54.18492 51.25105 53.55035 51.25105 52.7676 curveto

 51.25105 51.98483 51.8856 51.35027 52.66837 51.35027 curveto

 53.45114 51.35027 54.0857 51.98483 54.0857 52.7676 curveto

 closepath

 52.66837 52.7676 moveto

 pgfstr

 62.13618 48.55809 moveto

 62.13618 49.34085 61.50162 49.97542 60.71886 49.97542 curveto

 59.93608 49.97542 59.30153 49.34085 59.30153 48.55809 curveto

 59.30153 47.77533 59.93608 47.14076 60.71886 47.14076 curveto

 61.50162 47.14076 62.13618 47.77533 62.13618 48.55809 curveto

 closepath

 60.71886 48.55809 moveto

 pgfstr

 62.13618 64.82913 moveto

 62.13618 65.6119 61.50162 66.24646 60.71886 66.24646 curveto

 59.93608 66.24646 59.30153 65.6119 59.30153 64.82913 curveto

 59.30153 64.04637 59.93608 63.4118 60.71886 63.4118 curveto

 61.50162 63.4118 62.13618 64.04637 62.13618 64.82913 curveto

 closepath

 60.71886 64.82913 moveto

 pgfstr

 restore

 restore

 newpath

 restore

 pgfc


 0 TeXcolorgray
0 TeXcolorgray 0 TeXcolorgray 0 TeXcolorgray eop end
%%Trailer

userdict /end-hook known{end-hook}if
%%EOF
