%!PS-Adobe-2.0
/Times-Roman findfont 12 scalefont setfont

/triadesArr [
[(C ) (Dm ) (Em ) (F ) (G ) (Am ) (Bmb5 )]
[(F ) (Gm ) (Am ) (Bb) (C ) (Dm ) (Emb5 )]
[(Bb) (Cm ) (Dm ) (Eb) (F ) (Gm ) (Amb5 )]
[(Eb) (Fm ) (Gm ) (Ab) (Bb) (Cm ) (Dmb5 )]
[(Ab) (Bbm) (Cm ) (Db) (Eb) (Fm ) (Gmb5 )]
[(Db) (Ebm) (Fm ) (Gb) (Ab) (Bbm) (Cmb5 )]
[(F#) (G#m) (A#m) (B ) (C#) (D#m) (E#mb5)]
[(B ) (C#m) (D#m) (E ) (F#) (G#m) (A#mb5)]
[(E ) (F#m) (G#m) (A ) (B ) (C#m) (D#mb5)]
[(A ) (Bm ) (C#m) (D ) (E ) (F#m) (G#mb5)]
[(D ) (Em ) (F#m) (G ) (A ) (Bm ) (C#mb5)]
[(G ) (Am ) (Bm ) (C ) (D ) (Em ) (F#b5 )]
] def

336 396 translate
triadesArr { 50 0 moveto { 10 0 rmoveto show } forall 30 rotate } forall

showpage
